('/Users/fratiusltd/pdf_reader/build/reader/reader.pkg',
 {'BINARY': True,
  'DATA': True,
  'EXECUTABLE': True,
  'EXTENSION': True,
  'PYMODULE': True,
  'PYSOURCE': True,
  'PYZ': False,
  'SPLASH': True,
  'SYMLINK': False},
 [('pyi-contents-directory _internal', '', 'OPTION'),
  ('PYZ-00.pyz', '/Users/fratiusltd/pdf_reader/build/reader/PYZ-00.pyz', 'PYZ'),
  ('lib-dynload/_struct.cpython-312-darwin.so',
   '/Users/fratiusltd/.pyenv/versions/3.12.0/lib/python3.12/lib-dynload/_struct.cpython-312-darwin.so',
   'EXTENSION'),
  ('lib-dynload/zlib.cpython-312-darwin.so',
   '/Users/fratiusltd/.pyenv/versions/3.12.0/lib/python3.12/lib-dynload/zlib.cpython-312-darwin.so',
   'EXTENSION'),
  ('struct',
   '/Users/fratiusltd/pdf_reader/build/reader/localpycs/struct.pyc',
   'PYMODULE'),
  ('pyimod01_archive',
   '/Users/fratiusltd/pdf_reader/build/reader/localpycs/pyimod01_archive.pyc',
   'PYMODULE'),
  ('pyimod02_importers',
   '/Users/fratiusltd/pdf_reader/build/reader/localpycs/pyimod02_importers.pyc',
   'PYMODULE'),
  ('pyimod03_ctypes',
   '/Users/fratiusltd/pdf_reader/build/reader/localpycs/pyimod03_ctypes.pyc',
   'PYMODULE'),
  ('pyiboot01_bootstrap',
   '/Users/fratiusltd/.pyenv/versions/3.12.0/envs/pdf_reader/lib/python3.12/site-packages/PyInstaller/loader/pyiboot01_bootstrap.py',
   'PYSOURCE'),
  ('pyi_rth_inspect',
   '/Users/fratiusltd/.pyenv/versions/3.12.0/envs/pdf_reader/lib/python3.12/site-packages/PyInstaller/hooks/rthooks/pyi_rth_inspect.py',
   'PYSOURCE'),
  ('pyi_rth_pkgutil',
   '/Users/fratiusltd/.pyenv/versions/3.12.0/envs/pdf_reader/lib/python3.12/site-packages/PyInstaller/hooks/rthooks/pyi_rth_pkgutil.py',
   'PYSOURCE'),
  ('pyi_rth_multiprocessing',
   '/Users/fratiusltd/.pyenv/versions/3.12.0/envs/pdf_reader/lib/python3.12/site-packages/PyInstaller/hooks/rthooks/pyi_rth_multiprocessing.py',
   'PYSOURCE'),
  ('pyi_rth_pkgres',
   '/Users/fratiusltd/.pyenv/versions/3.12.0/envs/pdf_reader/lib/python3.12/site-packages/PyInstaller/hooks/rthooks/pyi_rth_pkgres.py',
   'PYSOURCE'),
  ('pyi_rth_setuptools',
   '/Users/fratiusltd/.pyenv/versions/3.12.0/envs/pdf_reader/lib/python3.12/site-packages/PyInstaller/hooks/rthooks/pyi_rth_setuptools.py',
   'PYSOURCE'),
  ('reader', '/Users/fratiusltd/pdf_reader/reader.py', 'PYSOURCE')],
 'libpython3.12.dylib',
 True,
 False,
 False,
 [],
 'arm64',
 None,
 None)
